{
  //MongoDBIP
  "ip": "http://8.8.8.8:3001",
  "msluser" : "http://8.8.8.8:3002",
  "redis" : {
    "host": "redis",
    "port": 6379,
    "passwort": ""
  },
  "google" : {
    "clientID": "368516282025-4dcoat384qvlqaujm4k04mr1hadtt9te.apps.googleusercontent.com",
    "clientSecret": "wl56DbcZSUvAN2bqVA3rBjQj",
    "callbackURL": "/auth/google/redirect"
  }
}
