{
  "type": "service_account",
  "project_id": "foodenw",
  "private_key_id": "03396afa3062761693eadffb0b57859e1fbfed90",
  "private_key": "-----BEGIN PRIVATE KEY-----\nMIIEvQIBADANBgkqhkiG9w0BAQEFAASCBKcwggSjAgEAAoIBAQDPM5DcBHBj0UTL\nzq7FfmBHcM50sLB2d58wl/fAVA+CdGH41nsGkm4nDGw4L1t1xwT4aXurWiPErPW+\nK9uoE6BOTwhx4x5mzH/UQWzeor9X9rrroXd+61Cubpx5+NWb9gu0EGgENgJdzVQ+\nz5QLAZEyXZJUyFmSEhCADH+fiWhImFyPYfiytA3RUp3c2IKAkN4U3FLLf25mJmNs\nPrI9if3j9CJrMW0s7Rk2uPrXYrEywuS8FsJnzbw2ab9g1qJTsp8+3icHfLBWxG8d\n5znUIPr1K/N/auBevgxCmOqbT5YKLx3kdLX7brUvY18gghhTmhXZMf5CVOD6CR/6\nNbA2vbOzAgMBAAECggEAIC5KGWHhyB8AfbGkGK2qwRhsIwODj2K/frSbmMDK3TVm\nN1et0996QZD/CIWSbEB019V04lrQTgOZnJJYk0o5DkXdcegXGLA6Sk+/Bkpl8tYx\n7IGE0FmL4Quc50oWeG/xHA5QRBcqAZeaYLGstJORvC4m7rQPSqMznNpUGAXSBIlz\nNJsxCoONQQlUfGuJdVnmI6MEs4h8ACq5gTOlNd6+NGwX5sBFojwUh2bja+rjlkzr\nPiXEfhLcoldJloByXLBMEYEOZeyt8srpA+QObqrWGnXKPL7WiPBbqyUwdKWtxuKh\nKtJCiwHvrVdWuV1tz6Lz4uw01SQWF1ZyqhDsLEJmgQKBgQDp8jv7SE0lSgPZw2BP\n6C/03qyprsHHw024TAAVwMFmWe+gHnfn6MvYHFXGFKBRrrahPCZldUw3u+wrwaj0\nYxe+3666vg6XEgRW7/oLwGm7qwnULIbWcaV28iswfjJMvxlt/A/xaQ+qcqd2GlL2\nxVGc0gBNpTJn++ht73Pa3BHSmQKBgQDiu+fxmixdC4j6AxFvZ2a5p7Qt4IRi4XQG\nGybotMDX+rOmYMYWEh7wIYuCn6huG1dolBnhCt40eByQZBtqRdldeeI60OXaPNCQ\nh7zVE2pmqN68EN5SkRsmbdmd1O29rSDi4HXemJAisuZUUNxjsSOyoE8SbsRttMZe\n/5nFVCJ0KwKBgQCdZsuQj97H3fqlQ1zDppbNjBxjth7PBsp92zSbbisxcAVXl+hY\n8jpkVvwm363WB1T9Onki/j6fqSKHdi707s8FL35iSomKfybIT4HO8lCxYaylQqge\nFCyd0OXaJK43EMRNSbB4XpWZuraNMbzsJ2p3tptZonI9oDGL9fXfJP4g0QKBgBTv\nKow5Iu14Wi5TSDHUBz0PCejOeQq0LEVADoif38pRQHMVLlTtWWPshPgLi76W0aw7\nOGR532hSyrheNdXLGzWxQj0R+pb61HrzvXCi+Uj/QIl2uUBAW5Rhwhz7gvPnX0jz\nVo614WECyZdxW9fsjBI7EPHvvj0u2r38tZLtoLy/AoGAUjKRdkW/Of6Pux0zUzh5\nzYuMD5zB7yzKmZIQm9xXI5bFfw+bzNz96lcAlPwY01V41KY66ZF8HNrPkQeDN8C1\n5V5y7yxxKQkxwYaf79T7snGvY9XVZ12qwfb68/SzBCt2pRqeOoun17oT6fnIRMVh\nBkQgsMoElQ55o9oZa2vp2NI=\n-----END PRIVATE KEY-----\n",
  "client_email": "mslimage@foodenw.iam.gserviceaccount.com",
  "client_id": "102451846225499243601",
  "auth_uri": "https://accounts.google.com/o/oauth2/auth",
  "token_uri": "https://accounts.google.com/o/oauth2/token",
  "auth_provider_x509_cert_url": "https://www.googleapis.com/oauth2/v1/certs",
  "client_x509_cert_url": "https://www.googleapis.com/robot/v1/metadata/x509/mslimage%40foodenw.iam.gserviceaccount.com"
}
